Manipulating data
…
--

```r
select(gtbl, country, year, pop)
```

```
# A tibble: 1,704 x 3
       country  year      pop
        <fctr> <int>    <int>
 1 Afghanistan  1952  8425333
 2 Afghanistan  1957  9240934
 3 Afghanistan  1962 10267083
 4 Afghanistan  1967 11537966
 5 Afghanistan  1972 13079460
 6 Afghanistan  1977 14880372
 7 Afghanistan  1982 12881816
 8 Afghanistan  1987 13867957
 9 Afghanistan  1992 16317921
10 Afghanistan  1997 22227415
# ... with 1,694 more rows
```
…
---

```r
sub_gtbl = select(gtbl, country, year)
distinct(sub_gtbl)
```

```
# A tibble: 1,704 x 2
       country  year
        <fctr> <int>
 1 Afghanistan  1952
 2 Afghanistan  1957
 3 Afghanistan  1962
 4 Afghanistan  1967
 5 Afghanistan  1972
 6 Afghanistan  1977
 7 Afghanistan  1982
 8 Afghanistan  1987
 9 Afghanistan  1992
10 Afghanistan  1997
# ... with 1,694 more rows
```
…
