Topic Models and EDA
…
```r
tidy_simply %>% group_by(word) %>% count()
```

```
# A tibble: 28,039 x 2
# Groups:   word [28,039]
              word     n
             <chr> <int>
 1              __     5
 2             ___    15
 3           _____     3
 4    __abstract__     1
 5        __choose     1
 6   __comparisons     1
 7 __conclusions__     1
 8          __data     4
 9          __give     1
10       __include     1
# ... with 28,029 more rows
```
…
